@startuml
scale 750 width

package Tarantool {
    package Auth {
        object users {
            + id
            password
            basket_id
        }
        object google {
            + id
            + user
            + email
        }
        object facebook {
            + id
            + user
            + email
        }
        object vk {
            + id
            + user
        }
        object ok {
            + id
            + user
        }
        object email {
            + email
            + user
        }
        object phone {
            + phone
            + user
        }
        users --|> google
        users --|> facebook
        users --|> vk
        users --|> ok
        users --|> email
        users --|> phone
    }

    package Session {
        object sessions {
            + id
            + user
            first
        }
        object new_sessions {
            + id
        }
    }

    object baskets {
        + id
        items[]
    }
}

@enduml
